id;username;password
1;Streamlined;transform driver
2;Svalbard & Jan Mayen Islands;Credit Card Account Tools
3;Devolved Implementation;Grocery navigate Street
4;Practical Cotton Ball;holistic solid state
5;multi-byte Tasty Plastic Table XML;Rustic benchmark
6;Run hacking Switchable;toolset Belarussian Ruble streamline
7;Re-contextualized protocol;CSS Burundi Franc
8;National SSL;Checking Account Games secondary
9;solutions Sharable;Ergonomic Concrete Sausages back up
10;copying;methodology Yuan Renminbi client-server
