id;number_house;street;district;city
1;models CFP Franc Human;Marquise Ford;Frozen hacking Home Loan Account;Lake Ofelia
2;navigating Solutions;Ondricka Stream;Zambian Kwacha;New Quincy
3;Customer supply-chains Corporate;Kertzmann Hills;web-readiness Buckinghamshire;East Lavina
4;Producer;Bailey Ferry;bypass Developer;North Karlieville
5;Tuna index;Koss Summit;Designer Hat;Mannfurt
6;bypassing;Tyreek Grove;circuit hacking;East Kaiahaven
7;grow override Personal Loan Account;Albert Radial;Home Quality-focused;Lake Novellaside
8;ubiquitous initiative Soap;Ross Wall;Assimilated transmit SCSI;East Gerdaport
9;USB;Pollich Plaza;Canada quantifying;East Mose
10;override National optical;Marvin Rest;Technician solid state quantify;North Donnafurt
