id;email;phone_number;date_of_birth;sex
1;Wilson.Skiles@gmail.com;heuristic wireless;2021-04-06T03:38:45;19253
2;Lexus95@yahoo.com;Concrete;2021-04-05T11:49:43;30527
3;Noble61@gmail.com;Music functionalities Implementation;2021-04-05T20:23:21;98464
4;Jude_Lockman@hotmail.com;Licensed Rubber Bacon relationships;2021-04-06T04:47:00;26106
5;Dorothea_Johnson79@gmail.com;azure Soft Villages;2021-04-06T04:02:20;85635
6;Hilbert67@hotmail.com;extranet Handcrafted bypass;2021-04-06T07:14:12;58203
7;Lucinda_Kling96@gmail.com;copying;2021-04-06T02:56:06;30600
8;Kellie.Smitham@hotmail.com;digital Ford Licensed;2021-04-06T06:41:00;3293
9;Mazie.Dach61@yahoo.com;synthesize multi-tasking calculate;2021-04-05T23:00:10;16621
10;Corine78@gmail.com;Auto Loan Account invoice;2021-04-06T08:27:03;16863
