id;free;receive_date;shipping_status;shipping_type
1;676;THX;Zimbabwe;Pizza Mews Garden
2;28757;microchip efficient Rustic;Vanuatu;Antigua and Barbuda
3;41495;e-markets Fantastic Auto Loan Account;Rustic EXE;program
4;71827;Electronics Handmade Cotton Towels GB;Practical deposit Lead;EXE Mouse Implemented
5;66155;Money Market Account Ergonomic Wooden Mouse out-of-the-box;Checking Account multimedia bypass;bus Bike Toys
6;67903;navigate;Checking Account input Games;THX methodical Egyptian Pound
7;11844;Executive Electronics Designer;Direct compelling hardware;Vermont synthesizing payment
8;38409;digital synergies Samoa;invoice Clothing Wooden;Persistent
9;83080;cross-media;Small Concrete Ball;Avon
10;38232;synergy Ergonomic migration;Metal program Agent;Marshall Islands Compatible
