{
  "name": "Customer",
  "fields": [
    {
      "fieldName": "email",
      "fieldType": "String"
    },
    {
      "fieldName": "phoneNumber",
      "fieldType": "String"
    },
    {
      "fieldName": "dateOfBirth",
      "fieldType": "Instant"
    },
    {
      "fieldName": "sex",
      "fieldType": "Integer"
    }
  ],
  "relationships": [
    {
      "relationshipType": "one-to-one",
      "otherEntityName": "account1",
      "otherEntityRelationshipName": "customer",
      "relationshipName": "account",
      "otherEntityField": "id",
      "ownerSide": true
    },
    {
      "relationshipType": "one-to-one",
      "otherEntityName": "fullName",
      "otherEntityRelationshipName": "customer",
      "relationshipName": "fullName",
      "otherEntityField": "id",
      "ownerSide": true
    },
    {
      "relationshipType": "one-to-one",
      "otherEntityName": "address",
      "otherEntityRelationshipName": "customer",
      "relationshipName": "address",
      "otherEntityField": "id",
      "ownerSide": true
    },
    {
      "relationshipType": "one-to-many",
      "otherEntityName": "order",
      "otherEntityRelationshipName": "customer",
      "relationshipName": "order"
    },
    {
      "relationshipType": "one-to-many",
      "otherEntityName": "cart",
      "otherEntityRelationshipName": "customer",
      "relationshipName": "cart"
    }
  ],
  "changelogDate": "20210406085745",
  "entityTableName": "customer",
  "dto": "no",
  "pagination": "no",
  "service": "no",
  "jpaMetamodelFiltering": false,
  "fluentMethods": true,
  "readOnly": false,
  "embedded": false,
  "clientRootFolder": "",
  "applications": "*"
}
