{
  "name": "Item",
  "fields": [
    {
      "fieldName": "discount",
      "fieldType": "Float"
    },
    {
      "fieldName": "price",
      "fieldType": "Double"
    },
    {
      "fieldName": "quantity",
      "fieldType": "Integer"
    }
  ],
  "relationships": [
    {
      "relationshipType": "many-to-one",
      "otherEntityName": "cart",
      "otherEntityRelationshipName": "item",
      "relationshipName": "cart",
      "otherEntityField": "id"
    },
    {
      "relationshipType": "many-to-one",
      "otherEntityName": "order",
      "otherEntityRelationshipName": "item",
      "relationshipName": "order",
      "otherEntityField": "id"
    },
    {
      "relationshipType": "many-to-one",
      "otherEntityName": "book",
      "otherEntityRelationshipName": "item",
      "relationshipName": "book",
      "otherEntityField": "id"
    }
  ],
  "changelogDate": "20210406090245",
  "entityTableName": "item",
  "dto": "no",
  "pagination": "pagination",
  "service": "no",
  "jpaMetamodelFiltering": false,
  "fluentMethods": true,
  "readOnly": false,
  "embedded": false,
  "clientRootFolder": "",
  "applications": "*"
}
